<?xml version="1.0" encoding="UTF-8"?>
<glyph name="_th1r1" format="2">
	<advance height="2048" width="981"/>
	<outline>
		<contour>
			<point x="475" y="-577" type="curve" smooth="yes"/>
			<point x="447" y="-577"/>
			<point x="419" y="-556"/>
			<point x="396" y="-515" type="curve" smooth="yes"/>
			<point x="374" y="-477"/>
			<point x="366" y="-429"/>
			<point x="366" y="-385" type="curve" smooth="yes"/>
			<point x="366" y="-295"/>
			<point x="403" y="-198"/>
			<point x="476" y="-142" type="curve"/>
			<point x="549" y="-198"/>
			<point x="586" y="-294"/>
			<point x="586" y="-385" type="curve" smooth="yes"/>
			<point x="586" y="-429"/>
			<point x="578" y="-476"/>
			<point x="556" y="-515" type="curve" smooth="yes"/>
			<point x="532" y="-556"/>
			<point x="504" y="-577"/>
		</contour>
		<contour>
			<point x="756" y="-831" type="curve" smooth="yes"/>
			<point x="804" y="-802"/>
			<point x="848" y="-762"/>
			<point x="886" y="-712" type="curve" smooth="yes"/>
			<point x="949" y="-628"/>
			<point x="981" y="-531"/>
			<point x="981" y="-427" type="curve" smooth="yes"/>
			<point x="981" y="-347"/>
			<point x="961" y="-259"/>
			<point x="918" y="-192" type="curve" smooth="yes"/>
			<point x="851" y="-88"/>
			<point x="732" y="-36"/>
			<point x="611" y="-36" type="curve" smooth="yes"/>
			<point x="565" y="-36"/>
			<point x="519" y="-42"/>
			<point x="476" y="-56" type="curve"/>
			<point x="432" y="-42"/>
			<point x="394" y="-36"/>
			<point x="349" y="-36" type="curve" smooth="yes"/>
			<point x="228" y="-36"/>
			<point x="100" y="-90"/>
			<point x="42" y="-199" type="curve" smooth="yes"/>
			<point x="14" y="-251"/>
			<point x="0" y="-310"/>
			<point x="0" y="-370" type="curve" smooth="yes"/>
			<point x="0" y="-467"/>
			<point x="37" y="-568"/>
			<point x="125" y="-620" type="curve" smooth="yes"/>
			<point x="142" y="-630"/>
			<point x="164" y="-636"/>
			<point x="186" y="-636" type="curve" smooth="yes"/>
			<point x="201" y="-636"/>
			<point x="217" y="-632"/>
			<point x="230" y="-625" type="curve" smooth="yes"/>
			<point x="240" y="-620"/>
			<point x="244" y="-613"/>
			<point x="244" y="-606" type="curve" smooth="yes"/>
			<point x="244" y="-599"/>
			<point x="238" y="-591"/>
			<point x="227" y="-585" type="curve" smooth="yes"/>
			<point x="151" y="-547"/>
			<point x="123" y="-449"/>
			<point x="123" y="-370" type="curve" smooth="yes"/>
			<point x="123" y="-316"/>
			<point x="135" y="-261"/>
			<point x="160" y="-214" type="curve" smooth="yes"/>
			<point x="199" y="-141"/>
			<point x="266" y="-96"/>
			<point x="349" y="-96" type="curve" smooth="yes"/>
			<point x="362" y="-96"/>
			<point x="374" y="-97"/>
			<point x="386" y="-100" type="curve"/>
			<point x="293" y="-164"/>
			<point x="243" y="-274"/>
			<point x="243" y="-385" type="curve" smooth="yes"/>
			<point x="243" y="-435"/>
			<point x="254" y="-488"/>
			<point x="278" y="-531" type="curve" smooth="yes"/>
			<point x="320" y="-605"/>
			<point x="393" y="-636"/>
			<point x="475" y="-636" type="curve" smooth="yes"/>
			<point x="558" y="-636"/>
			<point x="633" y="-605"/>
			<point x="674" y="-531" type="curve" smooth="yes"/>
			<point x="699" y="-487"/>
			<point x="709" y="-435"/>
			<point x="709" y="-385" type="curve" smooth="yes"/>
			<point x="709" y="-273"/>
			<point x="659" y="-165"/>
			<point x="566" y="-100" type="curve"/>
			<point x="581" y="-96"/>
			<point x="597" y="-95"/>
			<point x="611" y="-95" type="curve" smooth="yes"/>
			<point x="689" y="-97"/>
			<point x="755" y="-145"/>
			<point x="800" y="-211" type="curve" smooth="yes"/>
			<point x="843" y="-275"/>
			<point x="859" y="-352"/>
			<point x="859" y="-427" type="curve"/>
			<point x="858" y="-512"/>
			<point x="839" y="-599"/>
			<point x="796" y="-673" type="curve" smooth="yes"/>
			<point x="774" y="-712"/>
			<point x="746" y="-746"/>
			<point x="712" y="-775" type="curve"/>
			<point x="693" y="-738"/>
			<point x="635" y="-718"/>
			<point x="597" y="-710" type="curve" smooth="yes"/>
			<point x="557" y="-701"/>
			<point x="516" y="-698"/>
			<point x="476" y="-698" type="curve" smooth="yes"/>
			<point x="432" y="-698"/>
			<point x="385" y="-701"/>
			<point x="342" y="-712" type="curve" smooth="yes"/>
			<point x="301" y="-722"/>
			<point x="229" y="-749"/>
			<point x="229" y="-800" type="curve" smooth="yes"/>
			<point x="229" y="-851"/>
			<point x="299" y="-879"/>
			<point x="339" y="-889" type="curve" smooth="yes"/>
			<point x="378" y="-899"/>
			<point x="435" y="-904"/>
			<point x="476" y="-904" type="curve" smooth="yes"/>
			<point x="521" y="-904"/>
			<point x="563" y="-901"/>
			<point x="603" y="-892" type="curve" smooth="yes"/>
			<point x="656" y="-881"/>
			<point x="706" y="-862"/>
		</contour>
		<contour>
			<point x="476" y="-849" type="curve" smooth="yes"/>
			<point x="385" y="-849"/>
			<point x="343" y="-825"/>
			<point x="343" y="-800" type="curve" smooth="yes"/>
			<point x="343" y="-776"/>
			<point x="390" y="-753"/>
			<point x="476" y="-753" type="curve" smooth="yes"/>
			<point x="561" y="-753"/>
			<point x="605" y="-778"/>
			<point x="605" y="-800" type="curve" smooth="yes"/>
			<point x="605" y="-824"/>
			<point x="565" y="-849"/>
		</contour>
	</outline>
</glyph>
