<?xml version="1.0" encoding="UTF-8"?>
<glyph name="atilde" format="2">
	<unicode hex="00E3"/>
	<advance width="1106"/>
	<outline>
		<component base="a"/>
		<component base="asciitilde" xOffset="-80"/>
	</outline>
</glyph>
