<?xml version="1.0" encoding="UTF-8"?>
<glyph name="ch3r2" format="2">
	<advance height="2048" width="1988"/>
	<outline>
		<contour>
			<point x="1589" y="205" type="curve" smooth="yes"/>
			<point x="1589" y="284"/>
			<point x="1547" y="344"/>
			<point x="1486" y="384" type="curve"/>
			<point x="1642" y="379"/>
			<point x="1745" y="235"/>
			<point x="1745" y="87" type="curve" smooth="yes"/>
			<point x="1745" y="-28"/>
			<point x="1687" y="-135"/>
			<point x="1603" y="-211" type="curve" smooth="yes"/>
			<point x="1501" y="-302"/>
			<point x="1371" y="-354"/>
			<point x="1238" y="-382" type="curve"/>
			<point x="1264" y="-353"/>
			<point x="1280" y="-320"/>
			<point x="1280" y="-287" type="curve" smooth="yes"/>
			<point x="1280" y="-248"/>
			<point x="1259" y="-210"/>
			<point x="1210" y="-179" type="curve" smooth="yes"/>
			<point x="1171" y="-154"/>
			<point x="1110" y="-140"/>
			<point x="1050" y="-140" type="curve" smooth="yes"/>
			<point x="996" y="-140"/>
			<point x="936" y="-152"/>
			<point x="891" y="-180" type="curve"/>
			<point x="847" y="-152"/>
			<point x="786" y="-140"/>
			<point x="733" y="-140" type="curve" smooth="yes"/>
			<point x="673" y="-140"/>
			<point x="613" y="-154"/>
			<point x="572" y="-179" type="curve" smooth="yes"/>
			<point x="525" y="-209"/>
			<point x="505" y="-249"/>
			<point x="504" y="-287" type="curve"/>
			<point x="504" y="-372"/>
			<point x="570" y="-421"/>
			<point x="652" y="-449" type="curve" smooth="yes"/>
			<point x="733" y="-477"/>
			<point x="829" y="-485"/>
			<point x="890" y="-485" type="curve" smooth="yes"/>
			<point x="1040" y="-486"/>
			<point x="1185" y="-480"/>
			<point x="1329" y="-449" type="curve" smooth="yes"/>
			<point x="1478" y="-418"/>
			<point x="1626" y="-362"/>
			<point x="1741" y="-259" type="curve" smooth="yes"/>
			<point x="1838" y="-172"/>
			<point x="1908" y="-46"/>
			<point x="1908" y="87" type="curve" smooth="yes"/>
			<point x="1908" y="320"/>
			<point x="1721" y="461"/>
			<point x="1498" y="469" type="curve"/>
			<point x="1554" y="528"/>
			<point x="1589" y="607"/>
			<point x="1589" y="689" type="curve" smooth="yes"/>
			<point x="1589" y="766"/>
			<point x="1560" y="841"/>
			<point x="1499" y="897" type="curve" smooth="yes"/>
			<point x="1416" y="972"/>
			<point x="1302" y="999"/>
			<point x="1194" y="999" type="curve" smooth="yes"/>
			<point x="1088" y="999"/>
			<point x="968" y="971"/>
			<point x="891" y="893" type="curve"/>
			<point x="801" y="986"/>
			<point x="652" y="1000"/>
			<point x="529" y="1000" type="curve" smooth="yes"/>
			<point x="409" y="1000"/>
			<point x="277" y="977"/>
			<point x="187" y="909" type="curve" smooth="yes"/>
			<point x="122" y="860"/>
			<point x="80" y="788"/>
			<point x="80" y="684" type="curve" smooth="yes"/>
			<point x="80" y="611"/>
			<point x="106" y="558"/>
			<point x="146" y="521" type="curve" smooth="yes"/>
			<point x="193" y="480"/>
			<point x="260" y="459"/>
			<point x="337" y="459" type="curve" smooth="yes"/>
			<point x="451" y="459"/>
			<point x="579" y="523"/>
			<point x="579" y="655" type="curve" smooth="yes"/>
			<point x="579" y="781"/>
			<point x="459" y="852"/>
			<point x="348" y="852" type="curve" smooth="yes"/>
			<point x="321" y="852"/>
			<point x="295" y="847"/>
			<point x="269" y="837" type="curve"/>
			<point x="318" y="896"/>
			<point x="424" y="909"/>
			<point x="503" y="909" type="curve" smooth="yes"/>
			<point x="565" y="909"/>
			<point x="642" y="903"/>
			<point x="697" y="876" type="curve" smooth="yes"/>
			<point x="764" y="844"/>
			<point x="810" y="786"/>
			<point x="810" y="694" type="curve" smooth="yes"/>
			<point x="810" y="505" type="line" smooth="yes"/>
			<point x="810" y="480"/>
			<point x="846" y="459"/>
			<point x="890" y="459" type="curve" smooth="yes"/>
			<point x="936" y="459"/>
			<point x="972" y="479"/>
			<point x="972" y="505" type="curve" smooth="yes"/>
			<point x="972" y="694" type="line" smooth="yes"/>
			<point x="972" y="804"/>
			<point x="1044" y="908"/>
			<point x="1194" y="908" type="curve" smooth="yes"/>
			<point x="1256" y="908"/>
			<point x="1313" y="893"/>
			<point x="1360" y="850" type="curve" smooth="yes"/>
			<point x="1407" y="808"/>
			<point x="1427" y="745"/>
			<point x="1427" y="685" type="curve"/>
			<point x="1426" y="626"/>
			<point x="1405" y="571"/>
			<point x="1368" y="526" type="curve" smooth="yes"/>
			<point x="1330" y="481"/>
			<point x="1278" y="451"/>
			<point x="1214" y="432" type="curve" smooth="yes"/>
			<point x="1131" y="407"/>
			<point x="1016" y="401"/>
			<point x="894" y="401" type="curve" smooth="yes"/>
			<point x="824" y="401"/>
			<point x="753" y="403"/>
			<point x="685" y="405" type="curve" smooth="yes"/>
			<point x="617" y="407"/>
			<point x="552" y="410"/>
			<point x="491" y="410" type="curve" smooth="yes"/>
			<point x="398" y="410"/>
			<point x="316" y="405"/>
			<point x="248" y="387" type="curve" smooth="yes"/>
			<point x="150" y="362"/>
			<point x="83" y="312"/>
			<point x="83" y="206" type="curve" smooth="yes"/>
			<point x="83" y="11"/>
			<point x="297" y="-24"/>
			<point x="449" y="-24" type="curve" smooth="yes"/>
			<point x="566" y="-24"/>
			<point x="671" y="-3"/>
			<point x="778" y="43" type="curve" smooth="yes"/>
			<point x="871" y="83"/>
			<point x="950" y="130"/>
			<point x="1024" y="189" type="curve"/>
			<point x="1036" y="44"/>
			<point x="1164" y="-24"/>
			<point x="1296" y="-24" type="curve" smooth="yes"/>
			<point x="1433" y="-24"/>
			<point x="1589" y="48"/>
		</contour>
		<contour>
			<point x="890" y="-407" type="curve" smooth="yes"/>
			<point x="829" y="-407"/>
			<point x="753" y="-402"/>
			<point x="697" y="-377" type="curve" smooth="yes"/>
			<point x="659" y="-360"/>
			<point x="632" y="-331"/>
			<point x="632" y="-289" type="curve" smooth="yes"/>
			<point x="632" y="-237"/>
			<point x="690" y="-216"/>
			<point x="733" y="-216" type="curve" smooth="yes"/>
			<point x="792" y="-216"/>
			<point x="820" y="-258"/>
			<point x="820" y="-313" type="curve" smooth="yes"/>
			<point x="820" y="-343"/>
			<point x="867" y="-353"/>
			<point x="891" y="-353" type="curve" smooth="yes"/>
			<point x="916" y="-353"/>
			<point x="962" y="-343"/>
			<point x="962" y="-313" type="curve" smooth="yes"/>
			<point x="962" y="-257"/>
			<point x="992" y="-216"/>
			<point x="1048" y="-216" type="curve" smooth="yes"/>
			<point x="1094" y="-216"/>
			<point x="1150" y="-236"/>
			<point x="1150" y="-291" type="curve" smooth="yes"/>
			<point x="1150" y="-332"/>
			<point x="1123" y="-360"/>
			<point x="1086" y="-377" type="curve" smooth="yes"/>
			<point x="1028" y="-402"/>
			<point x="952" y="-407"/>
		</contour>
		<contour>
			<point x="339" y="550" type="curve" smooth="yes"/>
			<point x="287" y="550"/>
			<point x="234" y="586"/>
			<point x="234" y="655" type="curve" smooth="yes"/>
			<point x="234" y="725"/>
			<point x="286" y="760"/>
			<point x="337" y="760" type="curve" smooth="yes"/>
			<point x="389" y="760"/>
			<point x="440" y="725"/>
			<point x="440" y="655" type="curve" smooth="yes"/>
			<point x="440" y="588"/>
			<point x="390" y="550"/>
		</contour>
		<contour>
			<point x="1296" y="68" type="curve" smooth="yes"/>
			<point x="1216" y="68"/>
			<point x="1172" y="132"/>
			<point x="1172" y="207" type="curve" smooth="yes"/>
			<point x="1172" y="300"/>
			<point x="1236" y="343"/>
			<point x="1302" y="343" type="curve" smooth="yes"/>
			<point x="1364" y="343"/>
			<point x="1426" y="296"/>
			<point x="1426" y="209" type="curve" smooth="yes"/>
			<point x="1426" y="130"/>
			<point x="1378" y="68"/>
		</contour>
		<contour>
			<point x="470" y="65" type="curve" smooth="yes"/>
			<point x="385" y="65"/>
			<point x="240" y="80"/>
			<point x="240" y="193" type="curve" smooth="yes"/>
			<point x="240" y="238"/>
			<point x="266" y="284"/>
			<point x="309" y="300" type="curve" smooth="yes"/>
			<point x="350" y="315"/>
			<point x="417" y="319"/>
			<point x="499" y="319" type="curve" smooth="yes"/>
			<point x="555" y="319"/>
			<point x="618" y="318"/>
			<point x="685" y="315" type="curve" smooth="yes"/>
			<point x="760" y="312"/>
			<point x="842" y="310"/>
			<point x="922" y="310" type="curve" smooth="yes"/>
			<point x="952" y="310"/>
			<point x="984" y="310"/>
			<point x="1012" y="311" type="curve"/>
			<point x="928" y="234"/>
			<point x="810" y="168"/>
			<point x="719" y="124" type="curve" smooth="yes"/>
			<point x="643" y="88"/>
			<point x="561" y="65"/>
		</contour>
	</outline>
</glyph>
