<?xml version="1.0" encoding="UTF-8"?>
<glyph name="ch4" format="2">
	<unicode hex="0D1D"/>
	<advance height="2048" width="2925"/>
	<outline>
		<contour>
			<point x="2363" y="-24" type="curve" smooth="yes"/>
			<point x="2546" y="-24"/>
			<point x="2715" y="66"/>
			<point x="2794" y="235" type="curve" smooth="yes"/>
			<point x="2830" y="312"/>
			<point x="2845" y="399"/>
			<point x="2845" y="488" type="curve" smooth="yes"/>
			<point x="2845" y="692"/>
			<point x="2758" y="902"/>
			<point x="2562" y="989" type="curve" smooth="yes"/>
			<point x="2546" y="996"/>
			<point x="2526" y="1000"/>
			<point x="2506" y="1000" type="curve" smooth="yes"/>
			<point x="2483" y="1000"/>
			<point x="2460" y="995"/>
			<point x="2443" y="982" type="curve" smooth="yes"/>
			<point x="2432" y="974"/>
			<point x="2427" y="964"/>
			<point x="2427" y="955" type="curve" smooth="yes"/>
			<point x="2427" y="940"/>
			<point x="2440" y="926"/>
			<point x="2459" y="918" type="curve" smooth="yes"/>
			<point x="2618" y="851"/>
			<point x="2682" y="645"/>
			<point x="2682" y="486" type="curve" smooth="yes"/>
			<point x="2682" y="416"/>
			<point x="2672" y="345"/>
			<point x="2647" y="281" type="curve" smooth="yes"/>
			<point x="2600" y="163"/>
			<point x="2494" y="67"/>
			<point x="2363" y="67" type="curve" smooth="yes"/>
			<point x="2201" y="67"/>
			<point x="2130" y="189"/>
			<point x="2130" y="338" type="curve" smooth="yes"/>
			<point x="2130" y="954" type="line" smooth="yes"/>
			<point x="2130" y="979"/>
			<point x="2094" y="1000"/>
			<point x="2049" y="1000" type="curve" smooth="yes"/>
			<point x="2004" y="1000"/>
			<point x="1967" y="979"/>
			<point x="1967" y="954" type="curve" smooth="yes"/>
			<point x="1967" y="337" type="line" smooth="yes"/>
			<point x="1967" y="205"/>
			<point x="1922" y="67"/>
			<point x="1761" y="67" type="curve" smooth="yes"/>
			<point x="1662" y="67"/>
			<point x="1605" y="137"/>
			<point x="1575" y="219" type="curve" smooth="yes"/>
			<point x="1546" y="300"/>
			<point x="1542" y="406"/>
			<point x="1542" y="492" type="curve" smooth="yes"/>
			<point x="1542" y="610"/>
			<point x="1541" y="697"/>
			<point x="1497" y="785" type="curve" smooth="yes"/>
			<point x="1415" y="948"/>
			<point x="1253" y="1000"/>
			<point x="1080" y="1000" type="curve" smooth="yes"/>
			<point x="995" y="1000"/>
			<point x="920" y="986"/>
			<point x="854" y="962" type="curve"/>
			<point x="787" y="986"/>
			<point x="711" y="1000"/>
			<point x="627" y="1000" type="curve" smooth="yes"/>
			<point x="429" y="1000"/>
			<point x="242" y="902"/>
			<point x="149" y="724" type="curve" smooth="yes"/>
			<point x="104" y="638"/>
			<point x="80" y="532"/>
			<point x="80" y="427" type="curve" smooth="yes"/>
			<point x="80" y="262"/>
			<point x="140" y="90"/>
			<point x="286" y="1" type="curve" smooth="yes"/>
			<point x="311" y="-14"/>
			<point x="340" y="-24"/>
			<point x="368" y="-24" type="curve" smooth="yes"/>
			<point x="387" y="-24"/>
			<point x="406" y="-20"/>
			<point x="424" y="-9" type="curve" smooth="yes"/>
			<point x="438" y="-1"/>
			<point x="445" y="11"/>
			<point x="445" y="22" type="curve" smooth="yes"/>
			<point x="445" y="34"/>
			<point x="436" y="46"/>
			<point x="419" y="55" type="curve" smooth="yes"/>
			<point x="290" y="123"/>
			<point x="243" y="290"/>
			<point x="243" y="427" type="curve" smooth="yes"/>
			<point x="243" y="523"/>
			<point x="264" y="620"/>
			<point x="305" y="699" type="curve" smooth="yes"/>
			<point x="366" y="817"/>
			<point x="490" y="909"/>
			<point x="627" y="909" type="curve" smooth="yes"/>
			<point x="662" y="909"/>
			<point x="696" y="905"/>
			<point x="727" y="897" type="curve"/>
			<point x="568" y="785"/>
			<point x="486" y="595"/>
			<point x="486" y="404" type="curve" smooth="yes"/>
			<point x="486" y="312"/>
			<point x="505" y="224"/>
			<point x="544" y="153" type="curve" smooth="yes"/>
			<point x="609" y="35"/>
			<point x="721" y="-22"/>
			<point x="854" y="-22" type="curve" smooth="yes"/>
			<point x="985" y="-22"/>
			<point x="1097" y="35"/>
			<point x="1162" y="153" type="curve" smooth="yes"/>
			<point x="1200" y="223"/>
			<point x="1220" y="313"/>
			<point x="1220" y="404" type="curve" smooth="yes"/>
			<point x="1220" y="595"/>
			<point x="1138" y="785"/>
			<point x="979" y="897" type="curve"/>
			<point x="1010" y="905"/>
			<point x="1044" y="909"/>
			<point x="1080" y="909" type="curve" smooth="yes"/>
			<point x="1208" y="909"/>
			<point x="1306" y="855"/>
			<point x="1352" y="733" type="curve" smooth="yes"/>
			<point x="1379" y="659"/>
			<point x="1380" y="573"/>
			<point x="1380" y="492" type="curve" smooth="yes"/>
			<point x="1380" y="394"/>
			<point x="1382" y="295"/>
			<point x="1415" y="201" type="curve" smooth="yes"/>
			<point x="1467" y="53"/>
			<point x="1610" y="-24"/>
			<point x="1761" y="-24" type="curve" smooth="yes"/>
			<point x="1869" y="-24"/>
			<point x="1980" y="7"/>
			<point x="2053" y="92" type="curve"/>
			<point x="2123" y="15"/>
			<point x="2233" y="-24"/>
		</contour>
		<contour>
			<point x="854" y="68" type="curve" smooth="yes"/>
			<point x="783" y="68"/>
			<point x="731" y="122"/>
			<point x="699" y="180" type="curve" smooth="yes"/>
			<point x="665" y="242"/>
			<point x="648" y="321"/>
			<point x="648" y="404" type="curve" smooth="yes"/>
			<point x="648" y="567"/>
			<point x="717" y="744"/>
			<point x="854" y="839" type="curve"/>
			<point x="991" y="743"/>
			<point x="1058" y="567"/>
			<point x="1058" y="404" type="curve" smooth="yes"/>
			<point x="1058" y="321"/>
			<point x="1040" y="241"/>
			<point x="1007" y="179" type="curve" smooth="yes"/>
			<point x="975" y="121"/>
			<point x="924" y="68"/>
		</contour>
	</outline>
</glyph>
