<?xml version="1.0" encoding="UTF-8"?>
<glyph name="exclam" format="2">
	<unicode hex="0021"/>
	<advance height="2048" width="415"/>
	<outline>
		<contour>
			<point x="206" y="323" type="curve" smooth="yes"/>
			<point x="243" y="322"/>
			<point x="279" y="331"/>
			<point x="280" y="368" type="curve" smooth="yes"/>
			<point x="315" y="1318" type="line" smooth="yes"/>
			<point x="316" y="1358"/>
			<point x="260" y="1381"/>
			<point x="209" y="1381" type="curve" smooth="yes"/>
			<point x="156" y="1381"/>
			<point x="99" y="1357"/>
			<point x="100" y="1318" type="curve" smooth="yes"/>
			<point x="135" y="368" type="line" smooth="yes"/>
			<point x="136" y="332"/>
			<point x="172" y="323"/>
		</contour>
		<contour>
			<point x="208" y="191" type="curve" smooth="yes"/>
			<point x="148" y="191"/>
			<point x="100" y="143"/>
			<point x="100" y="83" type="curve" smooth="yes"/>
			<point x="100" y="24"/>
			<point x="148" y="-24"/>
			<point x="208" y="-24" type="curve" smooth="yes"/>
			<point x="267" y="-24"/>
			<point x="315" y="24"/>
			<point x="315" y="83" type="curve" smooth="yes"/>
			<point x="315" y="143"/>
			<point x="267" y="191"/>
		</contour>
	</outline>
</glyph>
