<?xml version="1.0" encoding="UTF-8"?>
<glyph name="lhlhu1.alt1" format="2">
	<advance width="2394"/>
	<outline>
		<component base="lhlh.alt1"/>
		<component base="u_sign_drop" xOffset="1703.6810467405" yOffset="-386.3909779622"/>
	</outline>
</glyph>
