<?xml version="1.0" encoding="UTF-8"?>
<glyph name="quotedblleft" format="2">
	<unicode hex="201C"/>
	<advance width="535.6977078275"/>
	<outline>
		<component base="quoteleft" xOffset="241.6155374712" yOffset="0.2364467011"/>
		<component base="quoteleft"/>
	</outline>
</glyph>
