<?xml version="1.0" encoding="UTF-8"?>
<glyph name="_v1" format="2">
	<advance height="2048" width="912"/>
	<outline>
		<contour>
			<point x="212" y="-636" type="curve" smooth="yes"/>
			<point x="225" y="-636"/>
			<point x="238" y="-633"/>
			<point x="248" y="-627" type="curve" smooth="yes"/>
			<point x="256" y="-622"/>
			<point x="260" y="-616"/>
			<point x="260" y="-610" type="curve" smooth="yes"/>
			<point x="260" y="-602"/>
			<point x="253" y="-594"/>
			<point x="243" y="-590" type="curve"/>
			<point x="145" y="-544"/>
			<point x="99" y="-442"/>
			<point x="99" y="-345" type="curve" smooth="yes"/>
			<point x="99" y="-212"/>
			<point x="184" y="-96"/>
			<point x="329" y="-96" type="curve" smooth="yes"/>
			<point x="475" y="-95"/>
			<point x="560" y="-213"/>
			<point x="560" y="-345" type="curve" smooth="yes"/>
			<point x="560" y="-441"/>
			<point x="514" y="-536"/>
			<point x="416" y="-583" type="curve"/>
			<point x="408" y="-586"/>
			<point x="399" y="-593"/>
			<point x="399" y="-602" type="curve" smooth="yes"/>
			<point x="399" y="-623"/>
			<point x="433" y="-629"/>
			<point x="449" y="-629" type="curve" smooth="yes"/>
			<point x="863" y="-629" type="line" smooth="yes"/>
			<point x="878" y="-629"/>
			<point x="912" y="-622"/>
			<point x="912" y="-602" type="curve" smooth="yes"/>
			<point x="912" y="-70" type="line" smooth="yes"/>
			<point x="912" y="-55"/>
			<point x="890" y="-43"/>
			<point x="863" y="-43" type="curve" smooth="yes"/>
			<point x="835" y="-43"/>
			<point x="814" y="-55"/>
			<point x="814" y="-70" type="curve" smooth="yes"/>
			<point x="814" y="-576" type="line"/>
			<point x="553" y="-576" type="line"/>
			<point x="620" y="-518"/>
			<point x="659" y="-434"/>
			<point x="659" y="-345" type="curve" smooth="yes"/>
			<point x="659" y="-167"/>
			<point x="508" y="-43"/>
			<point x="329" y="-43" type="curve" smooth="yes"/>
			<point x="151" y="-43"/>
			<point x="0" y="-166"/>
			<point x="0" y="-345" type="curve" smooth="yes"/>
			<point x="0" y="-461"/>
			<point x="67" y="-575"/>
			<point x="174" y="-627" type="curve" smooth="yes"/>
			<point x="186" y="-633"/>
			<point x="199" y="-636"/>
		</contour>
	</outline>
</glyph>
