<?xml version="1.0" encoding="UTF-8"?>
<glyph name="h1m1u1" format="2">
	<advance width="2012"/>
	<outline>
		<component base="h1m1" yOffset="-3"/>
		<component base="u_sign_drop" xOffset="1402" yOffset="4"/>
	</outline>
	<lib>
		<dict>
			<key>org.fontforge.glyphclass</key>
			<string>baseligature</string>
		</dict>
	</lib>
</glyph>
