<?xml version="1.0" encoding="UTF-8"?>
<glyph name="k2r1" format="2">
	<advance width="1662"/>
	<outline>
		<component base="vocalic_r_sign_drop" xOffset="594.8114881169" yOffset="1.6662578577"/>
		<component base="k2" xOffset="-1"/>
	</outline>
	<lib>
		<dict>
			<key>org.fontforge.glyphclass</key>
			<string>baseligature</string>
		</dict>
	</lib>
</glyph>
