<?xml version="1.0" encoding="UTF-8"?>
<glyph name="k3n1u2" format="2">
	<advance height="2048" width="2732"/>
	<outline>
		<contour>
			<point x="1395" y="861" type="curve"/>
			<point x="1315" y="962"/>
			<point x="1221" y="1000"/>
			<point x="1097" y="1000" type="curve" smooth="yes"/>
			<point x="780" y="1000"/>
			<point x="739" y="746"/>
			<point x="739" y="491" type="curve" smooth="yes"/>
			<point x="739" y="325"/>
			<point x="745" y="46"/>
			<point x="512" y="46" type="curve" smooth="yes"/>
			<point x="418" y="46"/>
			<point x="342" y="104"/>
			<point x="290" y="181" type="curve" smooth="yes"/>
			<point x="232" y="267"/>
			<point x="203" y="388"/>
			<point x="203" y="492" type="curve" smooth="yes"/>
			<point x="203" y="664"/>
			<point x="283" y="862"/>
			<point x="448" y="937" type="curve" smooth="yes"/>
			<point x="462" y="944"/>
			<point x="471" y="954"/>
			<point x="471" y="965" type="curve" smooth="yes"/>
			<point x="471" y="972"/>
			<point x="467" y="980"/>
			<point x="457" y="987" type="curve" smooth="yes"/>
			<point x="444" y="996"/>
			<point x="428" y="1000"/>
			<point x="412" y="1000" type="curve" smooth="yes"/>
			<point x="396" y="1000"/>
			<point x="380" y="996"/>
			<point x="367" y="990" type="curve" smooth="yes"/>
			<point x="178" y="902"/>
			<point x="80" y="694"/>
			<point x="80" y="492" type="curve" smooth="yes"/>
			<point x="80" y="377"/>
			<point x="112" y="250"/>
			<point x="175" y="156" type="curve" smooth="yes"/>
			<point x="255" y="37"/>
			<point x="371" y="-24"/>
			<point x="512" y="-24" type="curve" smooth="yes"/>
			<point x="837" y="-24"/>
			<point x="861" y="235"/>
			<point x="861" y="491" type="curve" smooth="yes"/>
			<point x="861" y="658"/>
			<point x="861" y="930"/>
			<point x="1097" y="930" type="curve" smooth="yes"/>
			<point x="1274" y="930"/>
			<point x="1325" y="812"/>
			<point x="1325" y="636" type="curve" smooth="yes"/>
			<point x="1325" y="11" type="line" smooth="yes"/>
			<point x="1325" y="-15"/>
			<point x="1367" y="-24"/>
			<point x="1387" y="-24" type="curve" smooth="yes"/>
			<point x="1406" y="-24"/>
			<point x="1448" y="-15"/>
			<point x="1448" y="11" type="curve" smooth="yes"/>
			<point x="1448" y="611" type="line" smooth="yes"/>
			<point x="1448" y="805"/>
			<point x="1558" y="931"/>
			<point x="1757" y="931" type="curve" smooth="yes"/>
			<point x="1874" y="931"/>
			<point x="1971" y="888"/>
			<point x="2058" y="809" type="curve"/>
			<point x="1921" y="792"/>
			<point x="1806" y="748"/>
			<point x="1721" y="631" type="curve" smooth="yes"/>
			<point x="1662" y="552"/>
			<point x="1632" y="451"/>
			<point x="1632" y="352" type="curve" smooth="yes"/>
			<point x="1632" y="271"/>
			<point x="1652" y="189"/>
			<point x="1696" y="121" type="curve" smooth="yes"/>
			<point x="1759" y="24"/>
			<point x="1861" y="-24"/>
			<point x="1975" y="-24" type="curve" smooth="yes"/>
			<point x="2092" y="-24"/>
			<point x="2193" y="32"/>
			<point x="2254" y="135" type="curve" smooth="yes"/>
			<point x="2305" y="223"/>
			<point x="2326" y="326"/>
			<point x="2326" y="427" type="curve" smooth="yes"/>
			<point x="2326" y="528"/>
			<point x="2306" y="626"/>
			<point x="2260" y="714" type="curve"/>
			<point x="2460" y="618"/>
			<point x="2530" y="405"/>
			<point x="2530" y="196" type="curve" smooth="yes"/>
			<point x="2530" y="-73"/>
			<point x="2397" y="-342"/>
			<point x="2089" y="-342" type="curve" smooth="yes"/>
			<point x="2003" y="-342"/>
			<point x="1918" y="-317"/>
			<point x="1849" y="-261" type="curve" smooth="yes"/>
			<point x="1837" y="-251"/>
			<point x="1818" y="-247"/>
			<point x="1799" y="-247" type="curve" smooth="yes"/>
			<point x="1786" y="-247"/>
			<point x="1772" y="-249"/>
			<point x="1763" y="-253" type="curve" smooth="yes"/>
			<point x="1748" y="-259"/>
			<point x="1737" y="-270"/>
			<point x="1737" y="-281" type="curve" smooth="yes"/>
			<point x="1737" y="-288"/>
			<point x="1741" y="-295"/>
			<point x="1749" y="-301" type="curve" smooth="yes"/>
			<point x="1844" y="-378"/>
			<point x="1969" y="-412"/>
			<point x="2089" y="-412" type="curve" smooth="yes"/>
			<point x="2461" y="-412"/>
			<point x="2652" y="-149"/>
			<point x="2652" y="196" type="curve" smooth="yes"/>
			<point x="2652" y="486"/>
			<point x="2504" y="753"/>
			<point x="2200" y="805" type="curve"/>
			<point x="2087" y="945"/>
			<point x="1932" y="1000"/>
			<point x="1757" y="1000" type="curve" smooth="yes"/>
			<point x="1613" y="1000"/>
			<point x="1497" y="960"/>
		</contour>
		<contour>
			<point x="1975" y="47" type="curve" smooth="yes"/>
			<point x="1903" y="47"/>
			<point x="1848" y="86"/>
			<point x="1810" y="145" type="curve" smooth="yes"/>
			<point x="1770" y="205"/>
			<point x="1755" y="280"/>
			<point x="1755" y="352" type="curve" smooth="yes"/>
			<point x="1755" y="442"/>
			<point x="1780" y="532"/>
			<point x="1833" y="604" type="curve" smooth="yes"/>
			<point x="1904" y="700"/>
			<point x="2000" y="740"/>
			<point x="2115" y="740" type="curve"/>
			<point x="2178" y="644"/>
			<point x="2203" y="544"/>
			<point x="2203" y="429" type="curve" smooth="yes"/>
			<point x="2203" y="336"/>
			<point x="2186" y="239"/>
			<point x="2138" y="158" type="curve" smooth="yes"/>
			<point x="2101" y="96"/>
			<point x="2050" y="47"/>
		</contour>
	</outline>
</glyph>
