<?xml version="1.0" encoding="UTF-8"?>
<glyph name="shk1" format="2">
	<advance width="1857"/>
	<outline>
		<component base="sh"/>
		<component base="_k1" xOffset="736" yOffset="12"/>
	</outline>
</glyph>
