<?xml version="1.0" encoding="UTF-8"?>
<glyph name="ch1ch1.alt1" format="2">
	<advance height="2048" width="1848"/>
	<outline>
		<contour>
			<point x="1646" y="12" type="line" smooth="yes"/>
			<point x="1678" y="12"/>
			<point x="1748" y="26"/>
			<point x="1748" y="68" type="curve" smooth="yes"/>
			<point x="1748" y="956" type="line" smooth="yes"/>
			<point x="1748" y="998"/>
			<point x="1679" y="1012"/>
			<point x="1646" y="1012" type="curve" smooth="yes"/>
			<point x="1614" y="1012"/>
			<point x="1545" y="998"/>
			<point x="1545" y="956" type="curve" smooth="yes"/>
			<point x="1545" y="123" type="line"/>
			<point x="1169" y="123" type="line"/>
			<point x="1315" y="219"/>
			<point x="1377" y="375"/>
			<point x="1377" y="546" type="curve" smooth="yes"/>
			<point x="1377" y="639"/>
			<point x="1351" y="760"/>
			<point x="1280" y="854" type="curve" smooth="yes"/>
			<point x="1199" y="960"/>
			<point x="1072" y="1012"/>
			<point x="940" y="1012" type="curve" smooth="yes"/>
			<point x="852" y="1012"/>
			<point x="768" y="989"/>
			<point x="706" y="940" type="curve"/>
			<point x="643" y="989"/>
			<point x="561" y="1012"/>
			<point x="474" y="1012" type="curve" smooth="yes"/>
			<point x="340" y="1012"/>
			<point x="203" y="953"/>
			<point x="132" y="835" type="curve" smooth="yes"/>
			<point x="95" y="773"/>
			<point x="80" y="696"/>
			<point x="80" y="623" type="curve" smooth="yes"/>
			<point x="80" y="463"/>
			<point x="153" y="302"/>
			<point x="306" y="236" type="curve" smooth="yes"/>
			<point x="324" y="228"/>
			<point x="346" y="224"/>
			<point x="369" y="224" type="curve" smooth="yes"/>
			<point x="398" y="224"/>
			<point x="427" y="231"/>
			<point x="448" y="246" type="curve" smooth="yes"/>
			<point x="463" y="257"/>
			<point x="470" y="269"/>
			<point x="470" y="280" type="curve" smooth="yes"/>
			<point x="470" y="298"/>
			<point x="454" y="315"/>
			<point x="431" y="325" type="curve" smooth="yes"/>
			<point x="326" y="371"/>
			<point x="283" y="515"/>
			<point x="283" y="622" type="curve" smooth="yes"/>
			<point x="283" y="683"/>
			<point x="294" y="749"/>
			<point x="324" y="799" type="curve" smooth="yes"/>
			<point x="354" y="849"/>
			<point x="413" y="899"/>
			<point x="474" y="899" type="curve" smooth="yes"/>
			<point x="560" y="899"/>
			<point x="605" y="802"/>
			<point x="605" y="727" type="curve" smooth="yes"/>
			<point x="605" y="282" type="line" smooth="yes"/>
			<point x="605" y="238"/>
			<point x="672" y="224"/>
			<point x="706" y="224" type="curve" smooth="yes"/>
			<point x="739" y="224"/>
			<point x="807" y="238"/>
			<point x="807" y="282" type="curve" smooth="yes"/>
			<point x="807" y="730" type="line" smooth="yes"/>
			<point x="807" y="806"/>
			<point x="852" y="900"/>
			<point x="938" y="899" type="curve" smooth="yes"/>
			<point x="1001" y="899"/>
			<point x="1057" y="857"/>
			<point x="1094" y="809" type="curve" smooth="yes"/>
			<point x="1152" y="732"/>
			<point x="1174" y="627"/>
			<point x="1174" y="546" type="curve" smooth="yes"/>
			<point x="1174" y="246"/>
			<point x="1000" y="123"/>
			<point x="722" y="123" type="curve" smooth="yes"/>
			<point x="188" y="123" type="line" smooth="yes"/>
			<point x="156" y="123"/>
			<point x="87" y="109"/>
			<point x="87" y="68" type="curve" smooth="yes"/>
			<point x="87" y="26"/>
			<point x="156" y="12"/>
			<point x="188" y="12" type="curve" smooth="yes"/>
		</contour>
	</outline>
</glyph>
