<?xml version="1.0" encoding="UTF-8"?>
<glyph name="k" format="2">
	<unicode hex="006B"/>
	<advance height="2048" width="1108"/>
	<outline>
		<contour>
			<point x="964" y="-24" type="curve" smooth="yes"/>
			<point x="982" y="-24"/>
			<point x="999" y="-22"/>
			<point x="1013" y="-19" type="curve" smooth="yes"/>
			<point x="1040" y="-13"/>
			<point x="1084" y="8"/>
			<point x="1084" y="36" type="curve" smooth="yes"/>
			<point x="1084" y="44"/>
			<point x="1080" y="52"/>
			<point x="1072" y="61" type="curve" smooth="yes"/>
			<point x="586" y="579" type="line"/>
			<point x="1011" y="931" type="line" smooth="yes"/>
			<point x="1020" y="939"/>
			<point x="1024" y="947"/>
			<point x="1024" y="954" type="curve" smooth="yes"/>
			<point x="1024" y="973"/>
			<point x="999" y="988"/>
			<point x="978" y="994" type="curve" smooth="yes"/>
			<point x="965" y="998"/>
			<point x="949" y="1000"/>
			<point x="933" y="1000" type="curve" smooth="yes"/>
			<point x="904" y="1000"/>
			<point x="874" y="994"/>
			<point x="856" y="978" type="curve" smooth="yes"/>
			<point x="303" y="517" type="line"/>
			<point x="303" y="1325" type="line" smooth="yes"/>
			<point x="303" y="1367"/>
			<point x="233" y="1381"/>
			<point x="201" y="1381" type="curve" smooth="yes"/>
			<point x="168" y="1381"/>
			<point x="99" y="1367"/>
			<point x="99" y="1325" type="curve" smooth="yes"/>
			<point x="99" y="32" type="line" smooth="yes"/>
			<point x="99" y="-10"/>
			<point x="168" y="-24"/>
			<point x="201" y="-24" type="curve" smooth="yes"/>
			<point x="233" y="-24"/>
			<point x="303" y="-10"/>
			<point x="303" y="32" type="curve" smooth="yes"/>
			<point x="303" y="340" type="line"/>
			<point x="439" y="454" type="line"/>
			<point x="855" y="10" type="line" smooth="yes"/>
			<point x="877" y="-14"/>
			<point x="923" y="-24"/>
		</contour>
	</outline>
</glyph>
