<?xml version="1.0" encoding="UTF-8"?>
<glyph name="y1u2" format="2">
	<advance width="1830.0122813489"/>
	<outline>
		<component base="y1"/>
		<component base="uu_sign_drop" xOffset="1033.519952837" yOffset="13.3592936351"/>
	</outline>
	<lib>
		<dict>
			<key>org.fontforge.glyphclass</key>
			<string>baseligature</string>
		</dict>
	</lib>
</glyph>
